Use-Case_Scenarios_COVID-19_A11.pdf.pdf.pdf.pdf,,,,,,,,,,,,
r,exposed_ratio,infected,clinical,severe,critical,dead,days_to_peak,days_to_finish,clinical_range,severe_range,critical_range,dead_range
1.2,0.32,2880000,576000,86000,22000,8600,440,880,"(288,000-864,000)","(29,000-173,000)","(5,800-52,000)","(1,700-26,000)"
1.35,0.47,4230000,846000,127000,32000,12700,290,570,"(423,000-1,269,000)","(42,000-254,000)","(8,500-76,000)","(2,500-38,000)"
1.5,0.58,5220000,1044000,157000,39000,15700,220,430,"(522,000-1,566,000)","(52,000-323,000)","(10,500-94,000)","(3,000-47,000)"
2,0.8,7200000,1440000,216000,54000,21600,130,250,"(700,000-2,160,000)","(72,000-432,000)","(14,500-130,000)","(4,300-65,000)"
